\relax 
\providecommand\HyperFirstAtBeginDocument{\AtBeginDocument}
\HyperFirstAtBeginDocument{\ifx\hyper@anchor\@undefined
\global\let\oldcontentsline\contentsline
\gdef\contentsline#1#2#3#4{\oldcontentsline{#1}{#2}{#3}}
\global\let\oldnewlabel\newlabel
\gdef\newlabel#1#2{\newlabelxx{#1}#2}
\gdef\newlabelxx#1#2#3#4#5#6{\oldnewlabel{#1}{{#2}{#3}}}
\AtEndDocument{\ifx\hyper@anchor\@undefined
\let\contentsline\oldcontentsline
\let\newlabel\oldnewlabel
\fi}
\fi}
\global\let\hyper@last\relax 
\gdef\HyperFirstAtBeginDocument#1{#1}
\providecommand\HyField@AuxAddToFields[1]{}
\citation{oh2012question}
\citation{leung2006integrating}
\citation{bonzi1982characteristics}
\citation{joachims1998text}
\citation{sebastiani2002machine}
\citation{yang1997comparative}
\citation{xue2008deep}
\citation{Pang:2002:TUS:1118693.1118704}
\citation{nakagawa2010dependency}
\citation{Yessenalina:2010:MSM:1870658.1870760}
\citation{dodds2006popular}
\citation{athar2011sentiment}
\citation{wilbur2006new}
\citation{athar2011sentiment}
\@writefile{toc}{\contentsline {section}{\numberline {1}Introduction}{1}{section.1}}
\@writefile{lof}{\contentsline {figure}{\numberline {1}{\ignorespaces  Internet Movie Database (IMDB)}}{1}{figure.1}}
\newlabel{fig:imdb}{{1}{1}{Internet Movie Database (IMDB)\relax }{figure.1}{}}
\citation{dave2003mining}
\citation{cardie2003combining}
\citation{das2007yahoo}
\citation{Pang:2002:TUS:1118693.1118704}
\citation{Teufel:2006:ACC:1610075.1610091}
\citation{Teufel:2009:ASC:1654595.1654612}
\citation{athar2011sentiment}
\citation{athar2012context}
\citation{athardetection}
\citation{athar2011sentiment}
\citation{leicht2007large}
\citation{radev2009bibliometric}
\citation{hirsch2005index}
\citation{zhu2005semi}
\citation{riloff2003learning}
\citation{collins1999unsupervised}
\citation{athar2011sentiment}
\@writefile{toc}{\contentsline {section}{\numberline {2}Related Work}{2}{section.2}}
\newlabel{sec:rel}{{2}{2}{Related Work\relax }{section.2}{}}
\citation{de2006generating}
\@writefile{toc}{\contentsline {section}{\numberline {3}Feature Study}{3}{section.3}}
\newlabel{sec:fea}{{3}{3}{Feature Study\relax }{section.3}{}}
\@writefile{toc}{\contentsline {subsection}{\numberline {3.1}Content-Based Feature}{3}{subsection.3.1}}
\@writefile{lof}{\contentsline {figure}{\numberline {2}{\ignorespaces  Sample Dependency Tree}}{3}{figure.2}}
\newlabel{fig:deptr}{{2}{3}{Sample Dependency Tree\relax }{figure.2}{}}
\@writefile{toc}{\contentsline {subsection}{\numberline {3.2}Meta Feature}{3}{subsection.3.2}}
\@writefile{toc}{\contentsline {section}{\numberline {4}Methodology}{3}{section.4}}
\newlabel{sec:meth}{{4}{3}{Methodology\relax }{section.4}{}}
\citation{ann}
\@writefile{lot}{\contentsline {table}{\numberline {1}{\ignorespaces  Features}}{4}{table.1}}
\newlabel{tb:fea}{{1}{4}{Features\relax }{table.1}{}}
\@writefile{lof}{\contentsline {figure}{\numberline {3}{\ignorespaces  Pipeline for feature generation}}{4}{figure.3}}
\newlabel{fig:fea}{{3}{4}{Pipeline for feature generation\relax }{figure.3}{}}
\@writefile{toc}{\contentsline {subsection}{\numberline {4.1}Self-Training}{4}{subsection.4.1}}
\@writefile{toc}{\contentsline {subsection}{\numberline {4.2}Co-Training}{4}{subsection.4.2}}
\@writefile{toc}{\contentsline {section}{\numberline {5}Data Set}{4}{section.5}}
\newlabel{sec:dat}{{5}{4}{Data Set\relax }{section.5}{}}
\citation{joachims1998text}
\citation{chang2011libsvm}
\citation{athar2011sentiment}
\@writefile{lot}{\contentsline {table}{\numberline {2}{\ignorespaces  Data Set}}{5}{table.2}}
\newlabel{tb:dat}{{2}{5}{Data Set\relax }{table.2}{}}
\@writefile{lof}{\contentsline {figure}{\numberline {4}{\ignorespaces  Distribution of Citation Length}}{5}{figure.4}}
\newlabel{fig:distr}{{4}{5}{Distribution of Citation Length\relax }{figure.4}{}}
\@writefile{toc}{\contentsline {section}{\numberline {6}Experiment}{5}{section.6}}
\newlabel{sec:exp}{{6}{5}{Experiment\relax }{section.6}{}}
\@writefile{toc}{\contentsline {subsection}{\numberline {6.1}Feature Study}{5}{subsection.6.1}}
\@writefile{lot}{\contentsline {table}{\numberline {3}{\ignorespaces Feature Combination \& Id}}{5}{table.3}}
\newlabel{tb:id}{{3}{5}{Feature Combination \& Id\relax }{table.3}{}}
\@writefile{lot}{\contentsline {table}{\numberline {4}{\ignorespaces  Experimental Result for Feature Study}}{5}{table.4}}
\newlabel{tb:fea_res}{{4}{5}{Experimental Result for Feature Study\relax }{table.4}{}}
\@writefile{toc}{\contentsline {subsection}{\numberline {6.2}Semi-Supervised Learning}{5}{subsection.6.2}}
\bibstyle{abbrv}
\bibdata{sigproc}
\bibcite{athar2011sentiment}{1}
\bibcite{athardetection}{2}
\bibcite{athar2012context}{3}
\bibcite{bonzi1982characteristics}{4}
\bibcite{cardie2003combining}{5}
\bibcite{chang2011libsvm}{6}
\bibcite{collins1999unsupervised}{7}
\bibcite{das2007yahoo}{8}
\bibcite{dave2003mining}{9}
\bibcite{de2006generating}{10}
\bibcite{dodds2006popular}{11}
\bibcite{ann}{12}
\bibcite{hirsch2005index}{13}
\bibcite{joachims1998text}{14}
\bibcite{leicht2007large}{15}
\bibcite{leung2006integrating}{16}
\bibcite{nakagawa2010dependency}{17}
\bibcite{oh2012question}{18}
\bibcite{Pang:2002:TUS:1118693.1118704}{19}
\bibcite{radev2009bibliometric}{20}
\bibcite{riloff2003learning}{21}
\@writefile{lot}{\contentsline {table}{\numberline {5}{\ignorespaces  Experimental Result for Semi-Supervised Learning}}{6}{table.5}}
\newlabel{tb:semi}{{5}{6}{Experimental Result for Semi-Supervised Learning\relax }{table.5}{}}
\@writefile{toc}{\contentsline {section}{\numberline {7}Conclusion \& Future Work}{6}{section.7}}
\newlabel{fea:conc}{{7}{6}{Conclusion \& Future Work\relax }{section.7}{}}
\@writefile{toc}{\contentsline {section}{\numberline {8}References}{6}{section.8}}
\bibcite{sebastiani2002machine}{22}
\bibcite{Teufel:2009:ASC:1654595.1654612}{23}
\bibcite{Teufel:2006:ACC:1610075.1610091}{24}
\bibcite{wilbur2006new}{25}
\bibcite{xue2008deep}{26}
\bibcite{yang1997comparative}{27}
\bibcite{Yessenalina:2010:MSM:1870658.1870760}{28}
\bibcite{zhu2005semi}{29}
